{
  "$schema": "../../node_modules/ng-packagr/ng-package.schema.json",
  "dest": "../../dist/libs/reactive-record",
  "whitelistedNonPeerDependencies": [],
  "lib": {
    "entryFile": "src/index.ts",
    "umdModuleIds": {
      "lodash": "_",
      "axios": "axios",
      "rxjs": "rxjs"
    }
  }
}
