{
  "$schema": "../../node_modules/ng-packagr/ng-package.schema.json",
  "dest": "../../dist/libs/angular",
  "whitelistedNonPeerDependencies": ["@firetask/reactive-record"],
  "lib": {
    "entryFile": "src/index.ts",
    "umdModuleIds": {
      "lodash": "_",
      "@firetask/reactive-record": "@firetask/reactive-record",
      "@firetask/core": "@firetask/core"
    }
  }
}
